%YAML 1.1
%TAG !u! tag:unity3d.com,2011:
--- !u!1 &2935184520928190838
GameObject:
  m_ObjectHideFlags: 0
  m_CorrespondingSourceObject: {fileID: 0}
  m_PrefabInstance: {fileID: 0}
  m_PrefabAsset: {fileID: 0}
  serializedVersion: 6
  m_Component:
  - component: {fileID: 2935184520928190837}
  m_Layer: 0
  m_Name: Reticle Prefab
  m_TagString: Untagged
  m_Icon: {fileID: 0}
  m_NavMeshLayer: 0
  m_StaticEditorFlags: 0
  m_IsActive: 1
--- !u!4 &2935184520928190837
Transform:
  m_ObjectHideFlags: 0
  m_CorrespondingSourceObject: {fileID: 0}
  m_PrefabInstance: {fileID: 0}
  m_PrefabAsset: {fileID: 0}
  m_GameObject: {fileID: 2935184520928190838}
  m_LocalRotation: {x: 0, y: 0, z: 0, w: 1}
  m_LocalPosition: {x: 0, y: 0, z: 0}
  m_LocalScale: {x: 1, y: 1, z: 1}
  m_Children:
  - {fileID: 8544023946580436228}
  m_Father: {fileID: 0}
  m_RootOrder: 0
  m_LocalEulerAnglesHint: {x: 0, y: 0, z: 0}
--- !u!1001 &2935184521802478567
PrefabInstance:
  m_ObjectHideFlags: 0
  serializedVersion: 2
  m_Modification:
    m_TransformParent: {fileID: 2935184520928190837}
    m_Modifications:
    - target: {fileID: 6785137139967940323, guid: a14853e5f5a279546b1563bd6a555b77, type: 3}
      propertyPath: m_Pivot.x
      value: 0.5
      objectReference: {fileID: 0}
    - target: {fileID: 6785137139967940323, guid: a14853e5f5a279546b1563bd6a555b77, type: 3}
      propertyPath: m_Pivot.y
      value: 0.5
      objectReference: {fileID: 0}
    - target: {fileID: 6785137139967940323, guid: a14853e5f5a279546b1563bd6a555b77, type: 3}
      propertyPath: m_RootOrder
      value: 0
      objectReference: {fileID: 0}
    - target: {fileID: 6785137139967940323, guid: a14853e5f5a279546b1563bd6a555b77, type: 3}
      propertyPath: m_AnchorMax.x
      value: 0.5
      objectReference: {fileID: 0}
    - target: {fileID: 6785137139967940323, guid: a14853e5f5a279546b1563bd6a555b77, type: 3}
      propertyPath: m_AnchorMax.y
      value: 0.5
      objectReference: {fileID: 0}
    - target: {fileID: 6785137139967940323, guid: a14853e5f5a279546b1563bd6a555b77, type: 3}
      propertyPath: m_AnchorMin.x
      value: 0.5
      objectReference: {fileID: 0}
    - target: {fileID: 6785137139967940323, guid: a14853e5f5a279546b1563bd6a555b77, type: 3}
      propertyPath: m_AnchorMin.y
      value: 0.5
      objectReference: {fileID: 0}
    - target: {fileID: 6785137139967940323, guid: a14853e5f5a279546b1563bd6a555b77, type: 3}
      propertyPath: m_SizeDelta.x
      value: 64
      objectReference: {fileID: 0}
    - target: {fileID: 6785137139967940323, guid: a14853e5f5a279546b1563bd6a555b77, type: 3}
      propertyPath: m_SizeDelta.y
      value: 64
      objectReference: {fileID: 0}
    - target: {fileID: 6785137139967940323, guid: a14853e5f5a279546b1563bd6a555b77, type: 3}
      propertyPath: m_LocalPosition.x
      value: 0
      objectReference: {fileID: 0}
    - target: {fileID: 6785137139967940323, guid: a14853e5f5a279546b1563bd6a555b77, type: 3}
      propertyPath: m_LocalPosition.y
      value: 0
      objectReference: {fileID: 0}
    - target: {fileID: 6785137139967940323, guid: a14853e5f5a279546b1563bd6a555b77, type: 3}
      propertyPath: m_LocalPosition.z
      value: 0
      objectReference: {fileID: 0}
    - target: {fileID: 6785137139967940323, guid: a14853e5f5a279546b1563bd6a555b77, type: 3}
      propertyPath: m_LocalRotation.w
      value: 0.7071068
      objectReference: {fileID: 0}
    - target: {fileID: 6785137139967940323, guid: a14853e5f5a279546b1563bd6a555b77, type: 3}
      propertyPath: m_LocalRotation.x
      value: 0.7071068
      objectReference: {fileID: 0}
    - target: {fileID: 6785137139967940323, guid: a14853e5f5a279546b1563bd6a555b77, type: 3}
      propertyPath: m_LocalRotation.y
      value: 0
      objectReference: {fileID: 0}
    - target: {fileID: 6785137139967940323, guid: a14853e5f5a279546b1563bd6a555b77, type: 3}
      propertyPath: m_LocalRotation.z
      value: 0
      objectReference: {fileID: 0}
    - target: {fileID: 6785137139967940323, guid: a14853e5f5a279546b1563bd6a555b77, type: 3}
      propertyPath: m_AnchoredPosition.x
      value: 0
      objectReference: {fileID: 0}
    - target: {fileID: 6785137139967940323, guid: a14853e5f5a279546b1563bd6a555b77, type: 3}
      propertyPath: m_AnchoredPosition.y
      value: 0.01
      objectReference: {fileID: 0}
    - target: {fileID: 6785137139967940323, guid: a14853e5f5a279546b1563bd6a555b77, type: 3}
      propertyPath: m_LocalEulerAnglesHint.x
      value: 90
      objectReference: {fileID: 0}
    - target: {fileID: 6785137139967940323, guid: a14853e5f5a279546b1563bd6a555b77, type: 3}
      propertyPath: m_LocalEulerAnglesHint.y
      value: 0
      objectReference: {fileID: 0}
    - target: {fileID: 6785137139967940323, guid: a14853e5f5a279546b1563bd6a555b77, type: 3}
      propertyPath: m_LocalEulerAnglesHint.z
      value: 0
      objectReference: {fileID: 0}
    - target: {fileID: 6785137139967940325, guid: a14853e5f5a279546b1563bd6a555b77, type: 3}
      propertyPath: m_PresetInfoIsWorld
      value: 1
      objectReference: {fileID: 0}
    - target: {fileID: 6785137139967940326, guid: a14853e5f5a279546b1563bd6a555b77, type: 3}
      propertyPath: m_Name
      value: Reticle
      objectReference: {fileID: 0}
    - target: {fileID: 6785137140263999896, guid: a14853e5f5a279546b1563bd6a555b77, type: 3}
      propertyPath: m_IsActive
      value: 0
      objectReference: {fileID: 0}
    - target: {fileID: 6785137140576639366, guid: a14853e5f5a279546b1563bd6a555b77, type: 3}
      propertyPath: m_Type
      value: 0
      objectReference: {fileID: 0}
    - target: {fileID: 6785137140576639366, guid: a14853e5f5a279546b1563bd6a555b77, type: 3}
      propertyPath: m_Sprite
      value: 
      objectReference: {fileID: 21300000, guid: 85b4fc67d8ea0004e86dc21dfaf68248, type: 3}
    - target: {fileID: 6785137140576639366, guid: a14853e5f5a279546b1563bd6a555b77, type: 3}
      propertyPath: m_Color.a
      value: 1
      objectReference: {fileID: 0}
    - target: {fileID: 6785137140576639366, guid: a14853e5f5a279546b1563bd6a555b77, type: 3}
      propertyPath: m_Color.b
      value: 0
      objectReference: {fileID: 0}
    - target: {fileID: 6785137140576639366, guid: a14853e5f5a279546b1563bd6a555b77, type: 3}
      propertyPath: m_Color.g
      value: 1
      objectReference: {fileID: 0}
    - target: {fileID: 6785137140576639366, guid: a14853e5f5a279546b1563bd6a555b77, type: 3}
      propertyPath: m_Color.r
      value: 0.064849496
      objectReference: {fileID: 0}
    m_RemovedComponents: []
  m_SourcePrefab: {fileID: 100100000, guid: a14853e5f5a279546b1563bd6a555b77, type: 3}
--- !u!224 &8544023946580436228 stripped
RectTransform:
  m_CorrespondingSourceObject: {fileID: 6785137139967940323, guid: a14853e5f5a279546b1563bd6a555b77, type: 3}
  m_PrefabInstance: {fileID: 2935184521802478567}
  m_PrefabAsset: {fileID: 0}
